%YAML 1.1
%TAG !u! tag:unity3d.com,2011:
--- !u!1001 &100100000
Prefab:
  m_ObjectHideFlags: 1
  serializedVersion: 2
  m_Modification:
    m_TransformParent: {fileID: 0}
    m_Modifications: []
    m_RemovedComponents: []
  m_SourcePrefab: {fileID: 0}
  m_RootGameObject: {fileID: 1826556496161058}
  m_IsPrefabAsset: 1
--- !u!1 &1826556496161058
GameObject:
  m_ObjectHideFlags: 0
  m_CorrespondingSourceObject: {fileID: 0}
  m_PrefabInternal: {fileID: 100100000}
  serializedVersion: 6
  m_Component:
  - component: {fileID: 4605113407192566}
  - component: {fileID: 114037482053618848}
  m_Layer: 0
  m_Name: PNL.WinLoseManager
  m_TagString: Untagged
  m_Icon: {fileID: 0}
  m_NavMeshLayer: 0
  m_StaticEditorFlags: 0
  m_IsActive: 1
--- !u!4 &4605113407192566
Transform:
  m_ObjectHideFlags: 1
  m_CorrespondingSourceObject: {fileID: 0}
  m_PrefabInternal: {fileID: 100100000}
  m_GameObject: {fileID: 1826556496161058}
  m_LocalRotation: {x: 0, y: 0, z: 0, w: 1}
  m_LocalPosition: {x: 605.96387, y: 307.85992, z: -713.35345}
  m_LocalScale: {x: 1, y: 1, z: 1}
  m_Children: []
  m_Father: {fileID: 0}
  m_RootOrder: 0
  m_LocalEulerAnglesHint: {x: 0, y: 0, z: 0}
--- !u!114 &114037482053618848
MonoBehaviour:
  m_ObjectHideFlags: 1
  m_CorrespondingSourceObject: {fileID: 0}
  m_PrefabInternal: {fileID: 100100000}
  m_GameObject: {fileID: 1826556496161058}
  m_Enabled: 1
  m_EditorHideFlags: 0
  m_Script: {fileID: 11500000, guid: ec95e5edcec24ef449f4ce32ee3f4739, type: 3}
  m_Name: 
  m_EditorClassIdentifier: 
  isEnabled: 0
  ConditionType: 0
  VariableType: 0
  TimeVariables: {fileID: 0}
  TimeValue: 0
  HealthVariables: {fileID: 0}
  HealthValue: 0
  ScoreVariables: {fileID: 0}
  ScoreValue: 0
  IntVariables: {fileID: 0}
  IntValue: 0
  FloatVariables: {fileID: 0}
  FloatValue: 0
  StringVariables: {fileID: 0}
  StringValue: 
  BoolVariables: {fileID: 0}
  BoolValue: 0
  usingCanvas: 0
  CanvasDialog: {fileID: 0}
  usingPanel: 0
  PanelDialog: {fileID: 0}
  DelayExecute: 0
  ShutdownGameObject: []
