%YAML 1.1
%TAG !u! tag:unity3d.com,2011:
--- !u!1001 &100100000
Prefab:
  m_ObjectHideFlags: 1
  serializedVersion: 2
  m_Modification:
    m_TransformParent: {fileID: 0}
    m_Modifications: []
    m_RemovedComponents: []
  m_SourcePrefab: {fileID: 0}
  m_RootGameObject: {fileID: 1346257106843946}
  m_IsPrefabAsset: 1
--- !u!1 &1346257106843946
GameObject:
  m_ObjectHideFlags: 0
  m_CorrespondingSourceObject: {fileID: 0}
  m_PrefabInternal: {fileID: 100100000}
  serializedVersion: 6
  m_Component:
  - component: {fileID: 4519734919483704}
  - component: {fileID: 114217644672414326}
  m_Layer: 0
  m_Name: GLO.GlobalTransfer
  m_TagString: Untagged
  m_Icon: {fileID: 0}
  m_NavMeshLayer: 0
  m_StaticEditorFlags: 0
  m_IsActive: 1
--- !u!4 &4519734919483704
Transform:
  m_ObjectHideFlags: 1
  m_CorrespondingSourceObject: {fileID: 0}
  m_PrefabInternal: {fileID: 100100000}
  m_GameObject: {fileID: 1346257106843946}
  m_LocalRotation: {x: 0, y: 0, z: 0, w: 1}
  m_LocalPosition: {x: 3.3797941, y: 6.0006604, z: 69.42346}
  m_LocalScale: {x: 1, y: 1, z: 1}
  m_Children: []
  m_Father: {fileID: 0}
  m_RootOrder: 0
  m_LocalEulerAnglesHint: {x: 0, y: 0, z: 0}
--- !u!114 &114217644672414326
MonoBehaviour:
  m_ObjectHideFlags: 1
  m_CorrespondingSourceObject: {fileID: 0}
  m_PrefabInternal: {fileID: 100100000}
  m_GameObject: {fileID: 1346257106843946}
  m_Enabled: 1
  m_EditorHideFlags: 0
  m_Script: {fileID: 11500000, guid: d677558ec71cd2841af400e372b20d69, type: 3}
  m_Name: 
  m_EditorClassIdentifier: 
  isEnabled: 1
  VariableType: 0
  TimeSender: {fileID: 0}
  TimeReceiver: {fileID: 0}
  HealthSender: {fileID: 0}
  HealthReceiver: {fileID: 0}
  ScoreSender: {fileID: 0}
  ScoreReceiver: {fileID: 0}
  IntSender: {fileID: 0}
  IntReceiver: {fileID: 0}
  FloatSender: {fileID: 0}
  FloatReceiver: {fileID: 0}
  StringSender: {fileID: 0}
  StringReceiver: {fileID: 0}
  BoolSender: {fileID: 0}
  BoolReceiver: {fileID: 0}
  Increment: 10
